tree_adder_procedural/tree_adder_procedural.sim/sim_1/behav/xsim/simulate.log
Time resolution is 1 ps
a = 0000, b = 0000, c = 00000000, d = 00000000, sum1 = 00000, sum2 = 000000000, sum3 = 0000000000
a = 1010, b = 0101, c = 11111111, d = 00000001, sum1 = 01111, sum2 = 100000000, sum3 = 0100001111
a = 1111, b = 0001, c = 10000000, d = 10000000, sum1 = 10000, sum2 = 100000000, sum3 = 0100010000
a = 0000, b = 0000, c = 10000000, d = 10000000, sum1 = 00000, sum2 = 100000000, sum3 = 0100000000
a = 0000, b = 0001, c = 10000000, d = 10000000, sum1 = 00001, sum2 = 100000000, sum3 = 0100000001
a = 0000, b = 0010, c = 10000000, d = 10000000, sum1 = 00010, sum2 = 100000000, sum3 = 0100000010
a = 0000, b = 0011, c = 10000000, d = 10000000, sum1 = 00011, sum2 = 100000000, sum3 = 0100000011
a = 0001, b = 0000, c = 10000000, d = 10000000, sum1 = 00001, sum2 = 100000000, sum3 = 0100000001
a = 0001, b = 0001, c = 10000000, d = 10000000, sum1 = 00010, sum2 = 100000000, sum3 = 0100000010
a = 0001, b = 0010, c = 10000000, d = 10000000, sum1 = 00011, sum2 = 100000000, sum3 = 0100000011
a = 0001, b = 0011, c = 10000000, d = 10000000, sum1 = 00100, sum2 = 100000000, sum3 = 0100000100
a = 0010, b = 0000, c = 10000000, d = 10000000, sum1 = 00010, sum2 = 100000000, sum3 = 0100000010
a = 0010, b = 0001, c = 10000000, d = 10000000, sum1 = 00011, sum2 = 100000000, sum3 = 0100000011
a = 0010, b = 0010, c = 10000000, d = 10000000, sum1 = 00100, sum2 = 100000000, sum3 = 0100000100
a = 0010, b = 0011, c = 10000000, d = 10000000, sum1 = 00101, sum2 = 100000000, sum3 = 0100000101
a = 0011, b = 0000, c = 10000000, d = 10000000, sum1 = 00011, sum2 = 100000000, sum3 = 0100000011
a = 0011, b = 0001, c = 10000000, d = 10000000, sum1 = 00100, sum2 = 100000000, sum3 = 0100000100
a = 0011, b = 0010, c = 10000000, d = 10000000, sum1 = 00101, sum2 = 100000000, sum3 = 0100000101
a = 0011, b = 0011, c = 10000000, d = 10000000, sum1 = 00110, sum2 = 100000000, sum3 = 0100000110
a = 0011, b = 0011, c = 00000000, d = 00000000, sum1 = 00110, sum2 = 000000000, sum3 = 0000000110
a = 0011, b = 0011, c = 00000000, d = 00000001, sum1 = 00110, sum2 = 000000001, sum3 = 0000000111
a = 0011, b = 0011, c = 00000000, d = 00000010, sum1 = 00110, sum2 = 000000010, sum3 = 0000001000
a = 0011, b = 0011, c = 00000000, d = 00000011, sum1 = 00110, sum2 = 000000011, sum3 = 0000001001
a = 0011, b = 0011, c = 00000001, d = 00000000, sum1 = 00110, sum2 = 000000001, sum3 = 0000000111
a = 0011, b = 0011, c = 00000001, d = 00000001, sum1 = 00110, sum2 = 000000010, sum3 = 0000001000
a = 0011, b = 0011, c = 00000001, d = 00000010, sum1 = 00110, sum2 = 000000011, sum3 = 0000001001
a = 0011, b = 0011, c = 00000001, d = 00000011, sum1 = 00110, sum2 = 000000100, sum3 = 0000001010
a = 0011, b = 0011, c = 00000010, d = 00000000, sum1 = 00110, sum2 = 000000010, sum3 = 0000001000
a = 0011, b = 0011, c = 00000010, d = 00000001, sum1 = 00110, sum2 = 000000011, sum3 = 0000001001
a = 0011, b = 0011, c = 00000010, d = 00000010, sum1 = 00110, sum2 = 000000100, sum3 = 0000001010
a = 0011, b = 0011, c = 00000010, d = 00000011, sum1 = 00110, sum2 = 000000101, sum3 = 0000001011
a = 0011, b = 0011, c = 00000011, d = 00000000, sum1 = 00110, sum2 = 000000011, sum3 = 0000001001
a = 0011, b = 0011, c = 00000011, d = 00000001, sum1 = 00110, sum2 = 000000100, sum3 = 0000001010
a = 0011, b = 0011, c = 00000011, d = 00000010, sum1 = 00110, sum2 = 000000101, sum3 = 0000001011
a = 0011, b = 0011, c = 00000011, d = 00000011, sum1 = 00110, sum2 = 000000110, sum3 = 0000001100
a = 0111, b = 1001, c = 00101010, d = 01100100, sum1 = 10000, sum2 = 010001110, sum3 = 0010011110
$stop called at time : 84 ns : File "C:/Users/Enoch/Git/Digital-Design-Learning/tree_adder_procedural/tree_adder_procedural.srcs/sources_1/new/tree_adder_procedural_tb.v" Line 74
